{"ok":true,"data":[{"id":"8e63a143-a0d9-4ca2-a7ac-7b76bbe1def3","title":"PR 마닐라 다색골프+시내숙박","destination":"마닐라","country":null,"category":"package","product_type":null,"trip_style":"3박4일 골프 패키지 여행상품입니다. 2인 이상 출발 가능합니다. 매일 출발 가능합니다. 마닐라 시내 숙박이 포함되어 있습니다. 골프 라운딩은 이글릿지, 셔우드, 파인힐스, 스플랜디도 중 18홀 라운딩이 포함됩니다. 현지인 가이드가 안내하며 행사 진행을 도와드립니다. 원활한 라운딩을 위해 골프장은 현지 사정에 따라 선택됩니다. (골프장, 순서지정불가) 차량은 미팅/샌딩, 호텔-골프장-식당 만 운행 합니다. 일정,옵션 외 차량이용은 불가하며 추가요금 발생합니다. 골프장 사정에 따라 2인1캐디, 4인1카트가 배정 될 수 있습니다. 2인실 1명이 쓰시는 경우 싱글차지 50,000원/인/박 추가 됩니다. 싱글카트피는 $20/18홀/인입니다. 원활한 행사 진행을 위해서 현지에서 행사 합류시 거부 될 수 있습니다. 석식은 마닐라시내 400페소, 다른 지역시 500~600페소 정도 지불 하시면 됩니다. 패키지 골프상품으로 라운딩/숙박/식사 등 이용하지 않으셔도 환불 되지 않습니다. 티오프 타임은 현지에서 결정되며 원하는 시간으로 배정되지 않을 수 있습니다. (사전지정 불가) 현지지불(불포함사항) 한국 포함시 입금 당일 송금 보낼 때 환율 적용됩니다. 골프장에 플레이어가 몰릴 경우 골프장에서 임의로 2인1캐디, 4인1카트로 진행 될 수 있습니다. 골프장에서는 음식물 반입금지이며, 골프장내에서는 스넥카와 그늘집을 이용하시기 바랍니다. 태풍,폭우 등으로 인한 천재지변 발생 시 각 골프장의 규정에 따라 진행됨을 양해 부탁드립니다. (환불X) 여권은 출발일 기준, 만료일 6개월 이상 남아 있어야 합니다. 취소수수료 규정 안내서 참고 하셔서 꼭 안내 부탁드립니다. 필리핀은 파이널 확정후 취소시 100% 위약금이 발생합니다. 주의 부탁드립니다. 예약금 입금확인 후, 확정진행 됩니다. 출발 1주일 전 완납을 기준으로 하며, 특가 상품은 2주전 완납 부탁드립니다. 파이널 확정된 금액은 파이널 확인 날짜까지 100% 입금 해주셔야 됩니다. 확정 후 취소시 100% 취소 위약금이이 나옵니다. *파이널 후 취소불가 예약 인원과 출발 인원이 다를 경우 최종 출발 인원으로 요금 지불 하셔야 합니다. 취소자는 취소수수료 규정대로 수수료가 발생되며, 나머지 인원도 추가금액 발생합니다. 현금영수증은 항공요금(항공사)+행사비(랜드사)로 나눠서 발급해드립니다. 행사 완료후 5일 이내만 발급 가능하며 이후로는 발급이 되지 않습니다. 확인 후 예약진행 부탁드립니다. 본 행사는 특별 약관 상품으로 상기 내용을 꼭 확인 부탁드립니다. 확인 후 동의를 하셨으면 예약 진행을 하겠습니다. 상기 일정은 현지 사정, 천재지변으로 인해 변경될 수 있습니다. 요금추가시 프리미엄 이코노미 클래스로 업그레이드 가능합니다. 항공그룹요금은 예약시 출발날짜별로 인상될 수 있습니다. 예약시 날짜별 상품가 다시 체크 부탁드립니다. 기념품 가게 방문 (간단한 선물 구입가능) - 방문안해도 됩니다. 의무X","duration":null,"departure_days":null,"departure_airport":"부산(김해)","airline":null,"min_participants":4,"ticketing_deadline":null,"price":null,"price_tiers":[],"price_dates":[{"date":"2026-05-27","note":null,"price":1079000,"status":"available","child_price":null},{"date":"2026-05-28","note":null,"price":1119000,"status":"available","child_price":null},{"date":"2026-05-29","note":null,"price":1119000,"status":"available","child_price":null},{"date":"2026-05-30","note":null,"price":1159000,"status":"available","child_price":null},{"date":"2026-05-31","note":null,"price":1139000,"status":"available","child_price":null},{"date":"2026-06-03","note":null,"price":1159000,"status":"available","child_price":null},{"date":"2026-06-04","note":null,"price":1119000,"status":"available","child_price":null},{"date":"2026-06-05","note":null,"price":1119000,"status":"available","child_price":null},{"date":"2026-06-06","note":null,"price":1079000,"status":"available","child_price":null},{"date":"2026-06-07","note":null,"price":1059000,"status":"available","child_price":null},{"date":"2026-06-08","note":null,"price":1059000,"status":"available","child_price":null},{"date":"2026-06-09","note":null,"price":1059000,"status":"available","child_price":null},{"date":"2026-07-10","note":null,"price":1199000,"status":"available","child_price":null},{"date":"2026-07-11","note":null,"price":1159000,"status":"available","child_price":null},{"date":"2026-07-12","note":null,"price":1139000,"status":"available","child_price":null},{"date":"2026-07-13","note":null,"price":1139000,"status":"available","child_price":null},{"date":"2026-07-14","note":null,"price":1139000,"status":"available","child_price":null},{"date":"2026-07-15","note":null,"price":1159000,"status":"available","child_price":null},{"date":"2026-08-15","note":null,"price":1159000,"status":"available","child_price":null},{"date":"2026-08-16","note":null,"price":1139000,"status":"available","child_price":null},{"date":"2026-08-17","note":null,"price":1139000,"status":"available","child_price":null},{"date":"2026-08-18","note":null,"price":1139000,"status":"available","child_price":null},{"date":"2026-08-19","note":null,"price":1159000,"status":"available","child_price":null},{"date":"2026-08-20","note":null,"price":1199000,"status":"available","child_price":null},{"date":"2026-08-21","note":null,"price":1199000,"status":"available","child_price":null},{"date":"2026-08-22","note":null,"price":1159000,"status":"available","child_price":null},{"date":"2026-08-23","note":null,"price":1059000,"status":"available","child_price":null},{"date":"2026-08-24","note":null,"price":1059000,"status":"available","child_price":null},{"date":"2026-08-25","note":null,"price":1059000,"status":"available","child_price":null},{"date":"2026-08-26","note":null,"price":1079000,"status":"available","child_price":null},{"date":"2026-08-27","note":null,"price":1119000,"status":"available","child_price":null},{"date":"2026-08-28","note":null,"price":1119000,"status":"available","child_price":null},{"date":"2026-08-29","note":null,"price":1079000,"status":"available","child_price":null},{"date":"2026-08-30","note":null,"price":1059000,"status":"available","child_price":null},{"date":"2026-08-31","note":null,"price":1059000,"status":"available","child_price":null},{"date":"2026-09-01","note":null,"price":1059000,"status":"available","child_price":null},{"date":"2026-09-02","note":null,"price":1079000,"status":"available","child_price":null},{"date":"2026-09-03","note":null,"price":1119000,"status":"available","child_price":null},{"date":"2026-09-04","note":null,"price":1119000,"status":"available","child_price":null},{"date":"2026-09-05","note":null,"price":1079000,"status":"available","child_price":null},{"date":"2026-09-06","note":null,"price":1059000,"status":"available","child_price":null},{"date":"2026-09-07","note":null,"price":1059000,"status":"available","child_price":null},{"date":"2026-09-08","note":null,"price":1059000,"status":"available","child_price":null},{"date":"2026-09-09","note":null,"price":1079000,"status":"available","child_price":null},{"date":"2026-09-10","note":null,"price":1119000,"status":"available","child_price":null},{"date":"2026-09-11","note":null,"price":1119000,"status":"available","child_price":null},{"date":"2026-09-12","note":null,"price":1079000,"status":"available","child_price":null},{"date":"2026-09-13","note":null,"price":1059000,"status":"available","child_price":null},{"date":"2026-09-14","note":null,"price":1059000,"status":"available","child_price":null},{"date":"2026-09-15","note":null,"price":1059000,"status":"available","child_price":null},{"date":"2026-09-16","note":null,"price":1079000,"status":"available","child_price":null},{"date":"2026-09-17","note":null,"price":1119000,"status":"available","child_price":null},{"date":"2026-09-18","note":null,"price":1199000,"status":"available","child_price":null},{"date":"2026-09-19","note":null,"price":1159000,"status":"available","child_price":null},{"date":"2026-09-20","note":null,"price":1139000,"status":"available","child_price":null},{"date":"2026-09-21","note":null,"price":1139000,"status":"available","child_price":null},{"date":"2026-09-22","note":null,"price":1139000,"status":"available","child_price":null},{"date":"2026-09-26","note":null,"price":1079000,"status":"available","child_price":null},{"date":"2026-09-27","note":null,"price":1059000,"status":"available","child_price":null},{"date":"2026-09-28","note":null,"price":1059000,"status":"available","child_price":null},{"date":"2026-09-29","note":null,"price":1059000,"status":"available","child_price":null},{"date":"2026-09-30","note":null,"price":1079000,"status":"available","child_price":null},{"date":"2026-10-01","note":null,"price":1119000,"status":"available","child_price":null},{"date":"2026-10-03","note":null,"price":1159000,"status":"available","child_price":null},{"date":"2026-10-04","note":null,"price":1059000,"status":"available","child_price":null},{"date":"2026-10-05","note":null,"price":1059000,"status":"available","child_price":null},{"date":"2026-10-06","note":null,"price":1059000,"status":"available","child_price":null},{"date":"2026-10-07","note":null,"price":1079000,"status":"available","child_price":null},{"date":"2026-10-09","note":null,"price":1199000,"status":"available","child_price":null},{"date":"2026-10-10","note":null,"price":1079000,"status":"available","child_price":null},{"date":"2026-10-11","note":null,"price":1059000,"status":"available","child_price":null},{"date":"2026-10-12","note":null,"price":1059000,"status":"available","child_price":null},{"date":"2026-10-13","note":null,"price":1059000,"status":"available","child_price":null},{"date":"2026-10-14","note":null,"price":1079000,"status":"available","child_price":null},{"date":"2026-10-15","note":null,"price":1119000,"status":"available","child_price":null},{"date":"2026-10-16","note":null,"price":1119000,"status":"available","child_price":null},{"date":"2026-10-17","note":null,"price":1079000,"status":"available","child_price":null},{"date":"2026-10-18","note":null,"price":1059000,"status":"available","child_price":null},{"date":"2026-10-19","note":null,"price":1059000,"status":"available","child_price":null},{"date":"2026-10-20","note":null,"price":1059000,"status":"available","child_price":null},{"date":"2026-10-21","note":null,"price":1079000,"status":"available","child_price":null},{"date":"2026-10-22","note":null,"price":1119000,"status":"available","child_price":null},{"date":"2026-10-23","note":null,"price":1199000,"status":"available","child_price":null},{"date":"2026-10-24","note":null,"price":1159000,"status":"available","child_price":null}],"price_list":[],"excluded_dates":[],"confirmed_dates":[],"status":"active","confidence":0.593478260869565,"created_at":"2026-05-23T22:24:45.57944","inclusions":["왕복항공료","유류할증료(5월기준)","숙박료","식사(조식)","그린피(54홀)","현지인 가이드","여행자보험"],"excludes":["차량은 미팅/샌딩, 호텔-골프장-식당 만 운행 합니다. 일정,옵션 외 차량이용은 불가하며 추가요금 발생합니다.","2인실 1명이 쓰시는 경우 싱글차지 50,000원/인/박 추가 됩니다.  *싱글카트피는 $20/18홀/인입니다."],"guide_tip":null,"single_supplement":null,"small_group_surcharge":null,"surcharges":[],"normalized_surcharges":[],"optional_tours":[],"itinerary":[],"special_notes":null,"customer_notes":null,"internal_notes":null,"notices_parsed":[{"text":"• 패키지 골프상품으로 라운딩/숙박/식사 등 이용하지 않으셔도 환불 되지 않습니다.\n• 골프장에서는 음식물 반입금지이며, 골프장내에서는 스넥카와 그늘집을 이용하시기 바랍니다.\n• 태풍,폭우 등으로 인한 천재지변 발생 시 각 골프장의 규정에 따라 진행됨을 양해 부탁드립니다. (환불X)\n• 여권은 출발일 기준, 만료일 6개월 이상 남아 있어야 합니다.\n• 취소수수료 규정 안내서 참고 하셔서 꼭 안내 부탁드립니다.\n• 필리핀 골프상품 취소규정 안내\n• ◎ 기간에 따른 취소 수수료 규정 안내 [특별약관적용]\n• 예약 후 취소 시\n• 1인 200,000원씩 공제 후 환불\n• 출발일 14일 ~ 7일전까지 취소\n• 총 금액의 40% 공제 후 환불\n• 출발일 7일 ~ 4일전 까지 취소\n• 총 금액의 60% 공제 후 환불\n• 출발일 4일 ~ 2일전 까지 취소\n• 총 금액의 80% 공제 후 환불\n• 출발일 1일 ~ 당일 취소\n• 100% 환불 불가\n• 취소문의는 평일 09시~18시 까지 상담가능하며, 공휴일(토,일) 및 국가 지정 휴무일에는취소처리가 되지 않습니다. 업무종료시간인 18시 이후 취소 시 익일로 계산됩니다.\n• 필리핀은 확정후 취소시 100% 위약금이 발생합니다. 주의 부탁드립니다.\n• 확정 후 취소시 100% 취소 위약금이이 나옵니다. *후 취소불가\n• ⍌ 예약 인원과 출발 인원이 다를 경우 최종 출발 인원으로 요금 지불 하셔야 합니다. ⍌ 취소자는 취소수수료 규정대로 수수료가 발생되며, 나머지 인원도 추가금액 발생합니다.\n• 필리핀은 확정후 취소시 100% 위약금이 발생합니다. 주의 부탁드립니다.","type":"CRITICAL","title":"필수 확인 사항"},{"text":"• 차량은 미팅/샌딩, 호텔-골프장-식당 만 운행 합니다. 일정,옵션 외 차량이용은 불가하며 추가요금 발생합니다.\n• 2인실 1명이 쓰시는 경우 싱글차지 50,000원/인/박 추가 됩니다.  *싱글카트피는 $20/18홀/인입니다.\n• 왕복항공료, 유류할증료(5월기준) 숙박료, 식사(조식), 그린피(54홀), 현지인 가이드, 여행자보험\n• 개인경비, 매너팁, 미팅/샌딩비-$60/인(4인이상), $80/인 (3인시), $120/인 (2인시)\n• 클럽 중식 & 석식, 현지인가이드피→ 4인이상 $30/박/인, 그늘집 및 음료, 캐디팁, 개인 매너팁 및 개인경비","type":"PAYMENT","title":"추가 비용 안내"},{"text":"• 현지인 가이드가 안내 하며 행사 진행을 도와 드립니다.\n• 현지인 가이드 피켓 미팅하여 호텔로 이동\n• 호텔 조식 후 현지가이드 미팅 후 체크아웃","type":"POLICY","title":"현지 규정 및 매너"}],"land_operator":null,"commission_rate":null,"affiliate_commission_rate":0.02,"commission_fixed_amount":null,"commission_currency":"KRW","product_tags":[],"product_highlights":[],"product_summary":"마닐라 여행","itinerary_data":{"days":[{"day":1,"hotel":{"name":"마이더스카지노 또는 센츄리파크 또는 킹스포드 또는 동급","note":null,"grade":"4성"},"meals":{"lunch":false,"dinner":true,"breakfast":false,"lunch_note":null,"dinner_note":"기내식","breakfast_note":null},"regions":["부산","마닐라"],"schedule":[{"note":null,"time":null,"type":"normal","badge":null,"activity":"출발2시간전 김해공항 국제선 1층에서 미팅 후 수속","transport":null},{"note":null,"time":"21:50","type":"flight","badge":null,"activity":"김해 국제공항 출발","transport":"PR463"},{"note":null,"time":"23:55","type":"flight","badge":null,"activity":"마닐라 국제공항 도착 후 현지인 가이드 피켓 미팅하여 호텔로 이동","transport":null},{"note":null,"time":null,"type":"normal","badge":null,"activity":"호텔 투숙 및 휴식","transport":null}]},{"day":2,"hotel":{"name":"마이더스카지노 또는 센츄리파크 또는 킹스포드 또는 동급","note":null,"grade":"4성"},"meals":{"lunch":false,"dinner":false,"breakfast":true,"lunch_note":"불포함","dinner_note":"불포함","breakfast_note":"호텔식"},"regions":["마닐라"],"schedule":[{"note":null,"time":"전 일","type":"normal","badge":null,"activity":"호텔 조식 후 골프장으로이동","transport":"전용차량"},{"note":null,"time":null,"type":"golf","badge":"⛳ 18홀","activity":"이글릿지,셔우드,파인힐스,스플랜디도 중 18홀 라운딩","transport":null},{"note":null,"time":null,"type":"normal","badge":null,"activity":"라운딩 후 자유일정","transport":null},{"note":null,"time":null,"type":"normal","badge":null,"activity":"호텔 투숙 및 휴식","transport":null}]},{"day":3,"hotel":{"name":"마이더스카지노 또는 센츄리파크 또는 킹스포드 또는 동급","note":null,"grade":"4성"},"meals":{"lunch":false,"dinner":false,"breakfast":true,"lunch_note":"불포함","dinner_note":"불포함","breakfast_note":"호텔식"},"regions":["마닐라"],"schedule":[{"note":null,"time":"전 일","type":"normal","badge":null,"activity":"리조트 조식 후 전일 자유시간","transport":"전용차량"},{"note":null,"time":null,"type":"golf","badge":"⛳ 18홀","activity":"이글릿지,셔우드,파인힐스,스플랜디도 중 18홀 라운딩","transport":null},{"note":null,"time":null,"type":"normal","badge":null,"activity":"라운딩 후 자유일정","transport":null},{"note":null,"time":null,"type":"normal","badge":null,"activity":"리조트 투숙 및 휴식","transport":null}]},{"day":4,"hotel":{"name":null,"note":null,"grade":null},"meals":{"lunch":true,"dinner":false,"breakfast":true,"lunch_note":"기내식","dinner_note":null,"breakfast_note":"호텔식"},"regions":["마닐라","부산"],"schedule":[{"note":null,"time":null,"type":"normal","badge":null,"activity":"호텔 조식 후 현지가이드 미팅 후 체크아웃","transport":null},{"note":null,"time":null,"type":"shopping","badge":null,"activity":"기념품 가게 방문 (간단한 선물 구입가능) - 방문안해도 됩니다. 의무X","transport":null},{"note":null,"time":null,"type":"normal","badge":null,"activity":"공항으로 이동","transport":null},{"note":null,"time":"14:50","type":"flight","badge":null,"activity":"마닐라 국제공항 출발","transport":"PR462"},{"note":null,"time":"19:50","type":"flight","badge":null,"activity":"김해 국제 공항 도착","transport":null}]}],"meta":{"days":4,"brand":"여소남","title":"PR 마닐라 다색 골프 + 시내숙박 3박4일","nights":3,"airline":"PR","flight_in":"PR462","flight_out":"PR463","destination":"마닐라","total_meals":5,"departure_days":"매일출발","min_participants":2,"departure_airport":"김해 국제공항"},"highlights":{"remarks":["* 현지인 가이드가 안내 하며 행사 진행을 도와 드립니다.","* 원활한 라운딩을 위해 골프장은 현지 사정에 따라 선택됩니다. (골프장, 순서지정불가)","* 차량은 미팅/샌딩, 호텔-골프장-식당 만 운행 합니다. 일정,옵션 외 차량이용은 불가하며 추가요금 발생합니다.","* 골프장 사정에 따라 2인1캐디, 4인1카트가 배정 될수 있습니다.","* 2인실 1명이 쓰시는 경우 싱글차지 50,000원/인/박 추가 됩니다. *싱글카트피는 $20/18홀/인입니다.","* 원활한 행사 진행을 위해서 현지에서 행사 합류시 거부 될수 있습니다.","* 석식은 마닐라시내 400페소, 다른 지역시 500~600페소 정도 지불 하시면 됩니다.","* 패키지 골프상품으로 라운딩/숙박/식사 등 이용하지 않으셔도 환불 되지 않습니다.","* 티오프 타임은 현지에서 결정되며 원하는 시간으로 배정되지 않을 수 있습니다. (사전지정 불가)","* 현지지불(불포함사항) 한국 포함시 입금 당일 송금 보낼 때 환율 적용","* 골프장에 플레이어가 몰릴 경우 골프장에서 임의로 2인1캐디, 4인1카트로 진행 될 수 있습니다.","* 골프장에서는 음식물 반입금지이며, 골프장내에서는 스넥카와 그늘집을 이용하시기 바랍니다.","* 태풍,폭우 등으로 인한 천재지변 발생 시 각 골프장의 규정에 따라 진행됨을 양해 부탁드립니다. (환불X)","* 여권은 출발일 기준, 만료일 6개월 이상 남아 있어야 합니다.","* 취소수수료 규정 안내서 참고 하셔서 꼭 안내 부탁드립니다."],"excludes":["개인경비, 매너팁, 미팅/샌딩비-$60/인(4인이상), $80/인 (3인시), $120/인 (2인시)","캐디피(1인1캐디)+전동카트(2인1카)+환경기금→$45/18홀/인 (*셔유드 라운딩시 $60/18홀/인)","클럽 중식 & 석식, 현지인가이드피→ 4인이상 $30/박/인, 그늘집 및 음료, 캐디팁, 개인 매너팁 및 개인경비","*이글리지,파인힐스 18홀 - 주말차지 35,000/인, 셔우드,스플랜디도 - 주말차지 30,000/인"],"shopping":"기념품 가게 방문 (간단한 선물 구입가능) - 방문안해도 됩니다. 의무X","inclusions":["왕복항공료, 유류할증료(5월기준) 숙박료, 식사(조식), 그린피(54홀), 현지인 가이드, 여행자보험"]},"optional_tours":[{"name":"다이아몬드호텔 변경","note":"/인 추가","price":null,"region":null,"price_krw":50000,"price_usd":null},{"name":"COD하얏트호텔 변경","note":"/인 추가","price":null,"region":null,"price_krw":220000,"price_usd":null},{"name":"오카다카지노호텔 변경","note":"추가 하시면 변경가능","price":null,"region":null,"price_krw":360000,"price_usd":null}],"flight_segments":[{"leg":"outbound","arr_time":"23:55","day_pair":[0,0],"dep_time":"21:50","flight_no":"PR463","arr_airport":"마닐라","dep_airport":"김해","arr_day_offset":0},{"leg":"inbound","arr_time":"19:50","day_pair":[3,3],"dep_time":"14:50","flight_no":"PR462","arr_airport":"김해","dep_airport":"마닐라","arr_day_offset":0}]},"marketing_copies":[],"internal_code":"PUS-ETC-UNK-05-0023","short_code":null,"land_operator_id":"de5cd166-9f84-41f5-9124-e9b6b1081ffe","is_airtel":false,"display_title":"PR 마닐라 다색골프+시내숙박","hero_tagline":"마닐라 다색골프 3박4일","data_completeness":null,"field_confidences":null,"is_stub":false,"stub_source":null,"seats_held":0,"seats_confirmed":0,"nights":null,"accommodations":[],"cancellation_policy":[],"avg_rating":null,"review_count":0,"audit_status":"clean","audit_report":{"checks":[{"id":"C1","label":"일차 수","detail":"4일 일치","status":"pass"},{"id":"C2","label":"선택관광 개수","detail":"원문에 선택관광 섹션 없음","status":"skip"},{"id":"C3","label":"특식 포함","detail":"원문에 특식 N회 표기 없음","status":"skip"},{"id":"C4","label":"최저가","detail":"최저가 산출 가능 (price_dates 84건)","status":"pass"},{"id":"C5","label":"출발요일 형식","detail":"출발요일 산출 가능 (price_dates 84건 / dep_days=none)","status":"pass"},{"id":"C6","label":"가격 데이터","detail":"price_dates 84건 (LLM backfill)","status":"pass"},{"id":"C7","label":"호텔 채움","detail":"3/3박 충족","status":"pass"},{"id":"C8","label":"통화 일관성","detail":"통화 표기 없음 (기본 KRW 가정)","status":"skip"},{"id":"C9","label":"일정 중복","detail":"중복 없음","status":"pass"},{"id":"C11","label":"hero 정합성","detail":"display_title 박힘 (LLM backfill)","status":"pass"},{"id":"C10","label":"옵션 가격 유효성","detail":"옵션 투어 없음","status":"skip"}],"source":"auto-upload-verify","fixable":[],"version":1},"audit_checked_at":"2026-05-23T22:24:50.645+00:00","products":{"net_price":1,"margin_rate":0.1,"display_name":"PR 마닐라 다색골프+시내숙박","internal_code":"PUS-ETC-UNK-05-0023","selling_price":1,"departure_region":"부산"},"has_itinerary_data":true,"attraction_preview_names":["김해 국제공항 출발","라운딩 후 자유일정","리조트 조식 후 전일 자유시간","리조트 투숙 및 휴식"]}],"timestamp":"2026-05-29T05:16:33.278Z","pagination":{"total":372,"page":1,"limit":1,"totalPages":372}}